{
    "AS_Segment_d18afdb464bb4b4babe0e53f3ea8aaa7": {
        "id": "AS_Segment_d18afdb464bb4b4babe0e53f3ea8aaa7",
        "type": "ACTION_SEQUENCE",
        "params": [{
            "datatype": "collection",
            "name": "eventobject"
        }, {
            "datatype": "number",
            "name": "sectionNumber"
        }, {
            "datatype": "number",
            "name": "rowNumber"
        }],
        "contextObj": {
            "name": "frmHome",
            "type": "forms",
            "platform": "",
            "KUID": "g14e39550d9a4205bcf4c3969aef80bc"
        },
        "language": "js",
        "actions": [{
            "id": "INVOKE_FUNCTION__f66f6987a08045e3a71891dcaad2aae0",
            "type": "INVOKE_FUNCTION",
            "sequenceKUID": "getTransactions",
            "display": "getTransactions",
            "inputparams": [],
            "parentId": null,
            "callbackType": null,
            "disabled": null,
            "source": "controller"
        }]
    }
}