{
    "@class": "com.kony.gen.viz.model.component.KVizButton",
    "DNDConfig": null,
    "_height_": {
        "type": "string",
        "value": "50dp"
    },
    "_left_": {
        "type": "string",
        "value": "47dp"
    },
    "_margin_": [
        6,
        6,
        6,
        6
    ],
    "_padding_": [
        0,
        0,
        0,
        0
    ],
    "_skin_": "s5aa60ff3d464b61b5cd45cdca28d064",
    "_text_": "Submit",
    "_top_": {
        "type": "string",
        "value": "20dp"
    },
    "_width_": {
        "type": "string",
        "value": "200dp"
    },
    "canUpdateUI": true,
    "centerx": {
        "type": "string",
        "value": "50%"
    },
    "containerweight": 100,
    "contentalignment": 5,
    "displaytext": true,
    "focusskin": "sf2b66ddf9664f40a4d7ef5507eca745",
    "id": "btnSubmit",
    "ide_onClick": "AS_Button_c736f8c42bba41118c815542c75785f9",
    "info": null,
    "iscustomlayout": false,
    "isvisible": true,
    "kuid": "g581720f221d4966946ea731c4aa6316",
    "name": "kony.ui.Button",
    "parent": "flxContent",
    "pf": "frmChangeName",
    "retaincontentalignment": false,
    "retainflexpositionproperties": false,
    "wType": "Button",
    "zindex": 1
}